<?xml version="1.0" encoding="UTF-8" standalone="no"?>
<!-- Created with Inkscape (http://www.inkscape.org/) -->

<svg
   xmlns:dc="http://purl.org/dc/elements/1.1/"
   xmlns:cc="http://creativecommons.org/ns#"
   xmlns:rdf="http://www.w3.org/1999/02/22-rdf-syntax-ns#"
   xmlns:svg="http://www.w3.org/2000/svg"
   xmlns="http://www.w3.org/2000/svg"
   xmlns:sodipodi="http://sodipodi.sourceforge.net/DTD/sodipodi-0.dtd"
   xmlns:inkscape="http://www.inkscape.org/namespaces/inkscape"
   width="626.50275"
   height="526.03503"
   id="svg2"
   version="1.1"
   inkscape:version="0.48.3.1 r9886"
   sodipodi:docname="d-i.svg">
  <defs
     id="defs4">
    <marker
       inkscape:stockid="Arrow1Mend"
       orient="auto"
       refY="0"
       refX="0"
       id="Arrow1Mend"
       style="overflow:visible">
      <path
         id="path3979"
         d="M 0,0 5,-5 -12.5,0 5,5 0,0 z"
         style="fill-rule:evenodd;stroke:#000000;stroke-width:1pt"
         transform="matrix(-0.4,0,0,-0.4,-4,0)"
         inkscape:connector-curvature="0" />
    </marker>
    <marker
       inkscape:stockid="TriangleOutL"
       orient="auto"
       refY="0"
       refX="0"
       id="TriangleOutL"
       style="overflow:visible">
      <path
         id="path4112"
         d="m 5.77,0 -8.65,5 0,-10 8.65,5 z"
         style="fill-rule:evenodd;stroke:#000000;stroke-width:1pt"
         transform="scale(0.8,0.8)"
         inkscape:connector-curvature="0" />
    </marker>
    <marker
       inkscape:stockid="Arrow1Lend"
       orient="auto"
       refY="0"
       refX="0"
       id="Arrow1Lend"
       style="overflow:visible">
      <path
         id="path3973"
         d="M 0,0 5,-5 -12.5,0 5,5 0,0 z"
         style="fill-rule:evenodd;stroke:#000000;stroke-width:1pt"
         transform="matrix(-0.8,0,0,-0.8,-10,0)"
         inkscape:connector-curvature="0" />
    </marker>
    <marker
       inkscape:stockid="Arrow1Lend"
       orient="auto"
       refY="0"
       refX="0"
       id="Arrow1Lend-7"
       style="overflow:visible">
      <path
         inkscape:connector-curvature="0"
         id="path3973-9"
         d="M 0,0 5,-5 -12.5,0 5,5 0,0 z"
         style="fill-rule:evenodd;stroke:#000000;stroke-width:1pt"
         transform="matrix(-0.8,0,0,-0.8,-10,0)" />
    </marker>
    <marker
       inkscape:stockid="Arrow1Lend"
       orient="auto"
       refY="0"
       refX="0"
       id="Arrow1Lend-8"
       style="overflow:visible">
      <path
         inkscape:connector-curvature="0"
         id="path3973-7"
         d="M 0,0 5,-5 -12.5,0 5,5 0,0 z"
         style="fill-rule:evenodd;stroke:#000000;stroke-width:1pt"
         transform="matrix(-0.8,0,0,-0.8,-10,0)" />
    </marker>
    <marker
       inkscape:stockid="Arrow1Lend"
       orient="auto"
       refY="0"
       refX="0"
       id="Arrow1Lend-6"
       style="overflow:visible">
      <path
         inkscape:connector-curvature="0"
         id="path3973-94"
         d="M 0,0 5,-5 -12.5,0 5,5 0,0 z"
         style="fill-rule:evenodd;stroke:#000000;stroke-width:1pt"
         transform="matrix(-0.8,0,0,-0.8,-10,0)" />
    </marker>
    <marker
       inkscape:stockid="Arrow1Lend"
       orient="auto"
       refY="0"
       refX="0"
       id="Arrow1Lend-3"
       style="overflow:visible">
      <path
         id="path3973-3"
         d="M 0,0 5,-5 -12.5,0 5,5 0,0 z"
         style="fill-rule:evenodd;stroke:#000000;stroke-width:1pt"
         transform="matrix(-0.8,0,0,-0.8,-10,0)"
         inkscape:connector-curvature="0" />
    </marker>
    <marker
       inkscape:stockid="Arrow1Lend"
       orient="auto"
       refY="0"
       refX="0"
       id="marker5128"
       style="overflow:visible">
      <path
         id="path5130"
         d="M 0,0 5,-5 -12.5,0 5,5 0,0 z"
         style="fill-rule:evenodd;stroke:#000000;stroke-width:1pt"
         transform="matrix(-0.8,0,0,-0.8,-10,0)"
         inkscape:connector-curvature="0" />
    </marker>
    <marker
       inkscape:stockid="Arrow1Lend"
       orient="auto"
       refY="0"
       refX="0"
       id="Arrow1Lend-1"
       style="overflow:visible">
      <path
         id="path3973-90"
         d="M 0,0 5,-5 -12.5,0 5,5 0,0 z"
         style="fill-rule:evenodd;stroke:#000000;stroke-width:1pt"
         transform="matrix(-0.8,0,0,-0.8,-10,0)"
         inkscape:connector-curvature="0" />
    </marker>
    <marker
       inkscape:stockid="Arrow1Lend"
       orient="auto"
       refY="0"
       refX="0"
       id="Arrow1Lend-35"
       style="overflow:visible">
      <path
         id="path3973-99"
         d="M 0,0 5,-5 -12.5,0 5,5 0,0 z"
         style="fill-rule:evenodd;stroke:#000000;stroke-width:1pt"
         transform="matrix(-0.8,0,0,-0.8,-10,0)"
         inkscape:connector-curvature="0" />
    </marker>
    <marker
       inkscape:stockid="Arrow1Lend"
       orient="auto"
       refY="0"
       refX="0"
       id="Arrow1Lend-19"
       style="overflow:visible">
      <path
         id="path3973-6"
         d="M 0,0 5,-5 -12.5,0 5,5 0,0 z"
         style="fill-rule:evenodd;stroke:#000000;stroke-width:1pt"
         transform="matrix(-0.8,0,0,-0.8,-10,0)"
         inkscape:connector-curvature="0" />
    </marker>
  </defs>
  <sodipodi:namedview
     id="base"
     pagecolor="#ffffff"
     bordercolor="#666666"
     borderopacity="1.0"
     inkscape:pageopacity="0.0"
     inkscape:pageshadow="2"
     inkscape:zoom="0.49497475"
     inkscape:cx="443.22341"
     inkscape:cy="175.39498"
     inkscape:document-units="px"
     inkscape:current-layer="layer2"
     showgrid="false"
     fit-margin-top="0"
     fit-margin-left="0"
     fit-margin-right="0"
     fit-margin-bottom="0"
     inkscape:window-width="1024"
     inkscape:window-height="548"
     inkscape:window-x="0"
     inkscape:window-y="0"
     inkscape:window-maximized="1" />
  <metadata
     id="metadata7">
    <rdf:RDF>
      <cc:Work
         rdf:about="">
        <dc:format>image/svg+xml</dc:format>
        <dc:type
           rdf:resource="http://purl.org/dc/dcmitype/StillImage" />
        <dc:title></dc:title>
      </cc:Work>
    </rdf:RDF>
  </metadata>
  <g
     inkscape:label="Capa 1"
     inkscape:groupmode="layer"
     id="layer1"
     transform="translate(-97.880711,-372.34321)"
     style="display:none"
     sodipodi:insensitive="true">
    <g
       id="g3936"
       transform="translate(-6.43062,0)">
      <path
         inkscape:connector-curvature="0"
         d="m 280.09055,373.36564 237.84389,0 0,47.55163 0,0.9991 0.99935,0 36.1013,0 0,69.34481 -274.94454,0 0,-117.89554 z m -0.0236,-0.0232 0,0.96674 0,116.00833 0,0.96674 0.98519,0 273.02113,0 0.98519,0 0,-0.96674 0,-68.84974 -0.89283,-1.148 -0.0923,0 0,-0.0906 -37.22176,-46.8867 -235.79937,0 -0.98519,0 z"
         style="fill:none;stroke:#0013dc;stroke-width:1.99845874;stroke-miterlimit:4;stroke-opacity:1"
         id="rect2985" />
      <text
         sodipodi:linespacing="125%"
         id="text3883"
         y="460.35187"
         x="290.23459"
         style="font-size:64px;font-style:normal;font-weight:normal;line-height:125%;letter-spacing:0px;word-spacing:0px;fill:#000000;fill-opacity:1;stroke:none;font-family:Bitstream Vera Sans"
         xml:space="preserve"><tspan
           y="460.35187"
           x="290.23459"
           id="tspan3885"
           sodipodi:role="line">vector.h</tspan></text>
    </g>
    <g
       id="g3931"
       transform="translate(0,-3.4431152)">
      <path
         inkscape:connector-curvature="0"
         d="m 448.41632,579.75701 237.84389,0 0,47.55163 0,0.9991 0.99935,0 36.1013,0 0,69.34481 -274.94454,0 0,-117.89554 z m -0.0236,-0.0232 0,0.96674 0,116.00833 0,0.96674 0.98519,0 273.02113,0 0.98519,0 0,-0.96674 0,-68.84974 -0.89283,-1.148 -0.0923,0 0,-0.0906 -37.22176,-46.8867 -235.79937,0 -0.98519,0 z"
         style="fill:none;stroke:#0013dc;stroke-width:1.99845874;stroke-miterlimit:4;stroke-opacity:1"
         id="rect2985-1" />
      <text
         sodipodi:linespacing="125%"
         id="text3883-1"
         y="662.56409"
         x="494.92584"
         style="font-size:64px;font-style:normal;font-weight:normal;line-height:125%;letter-spacing:0px;word-spacing:0px;fill:#000000;fill-opacity:1;stroke:none;font-family:Bitstream Vera Sans"
         xml:space="preserve"><tspan
           y="662.56409"
           x="494.92584"
           id="tspan3885-2"
           sodipodi:role="line">cola.h</tspan></text>
    </g>
    <g
       id="g3926"
       transform="translate(0,-3.4431152)">
      <path
         inkscape:connector-curvature="0"
         d="m 98.90354,579.75701 237.84389,0 0,47.55163 0,0.9991 0.99935,0 36.1013,0 0,69.34481 -274.94454,0 0,-117.89554 z m -0.0236,-0.0232 0,0.96674 0,116.00833 0,0.96674 0.98519,0 273.02113,0 0.98519,0 0,-0.96674 0,-68.84974 -0.89283,-1.148 -0.0923,0 0,-0.0906 -37.22176,-46.8867 -235.79937,0 -0.98519,0 z"
         style="fill:none;stroke:#0013dc;stroke-width:1.99845874;stroke-miterlimit:4;stroke-opacity:1"
         id="rect2985-5" />
      <text
         sodipodi:linespacing="125%"
         id="text3883-3"
         y="656.36096"
         x="137.83276"
         style="font-size:64px;font-style:normal;font-weight:normal;line-height:125%;letter-spacing:0px;word-spacing:0px;fill:#000000;fill-opacity:1;stroke:none;font-family:Bitstream Vera Sans"
         xml:space="preserve"><tspan
           y="656.36096"
           x="137.83276"
           id="tspan3885-8"
           sodipodi:role="line">pila.h</tspan></text>
    </g>
    <g
       id="g3941"
       transform="translate(-6.43062,0)">
      <path
         inkscape:connector-curvature="0"
         d="m 220.13214,779.26214 341.57939,0 0,47.55163 0,0.9991 1.43522,0 51.84686,0 0,69.34481 -394.86147,0 0,-117.89554 z m -0.0339,-0.0232 0,0.96674 0,116.00833 0,0.96674 1.41488,0 392.09917,0 1.41488,0 0,-0.96674 0,-68.84974 -1.28224,-1.148 -0.13256,0 0,-0.0906 -53.45601,-46.8867 -338.64315,0 -1.41488,0 z"
         style="fill:none;stroke:#0013dc;stroke-width:2.39494205;stroke-miterlimit:4;stroke-opacity:1"
         id="rect2985-2" />
      <text
         sodipodi:linespacing="125%"
         id="text3883-0"
         y="868.23163"
         x="232.54707"
         style="font-size:64px;font-style:normal;font-weight:normal;line-height:125%;letter-spacing:0px;word-spacing:0px;fill:#000000;fill-opacity:1;stroke:none;font-family:Bitstream Vera Sans"
         xml:space="preserve"><tspan
           y="868.23163"
           x="232.54707"
           id="tspan3885-5"
           sodipodi:role="line">programa.c</tspan></text>
    </g>
    <path
       style="fill:none;stroke:#000000;stroke-width:4;stroke-linecap:butt;stroke-linejoin:miter;stroke-miterlimit:4;stroke-opacity:1;stroke-dasharray:none;marker-end:url(#Arrow1Lend)"
       d="M 391.91897,775.58039 278.48077,700.65053"
       id="path3964"
       inkscape:connector-curvature="0"
       sodipodi:nodetypes="cc" />
    <path
       style="fill:none;stroke:#000000;stroke-width:4;stroke-linecap:butt;stroke-linejoin:miter;stroke-miterlimit:4;stroke-opacity:1;stroke-dasharray:none;marker-end:url(#Arrow1Lend)"
       d="M 430.34519,776.16246 543.78341,701.2326"
       id="path3964-8"
       inkscape:connector-curvature="0"
       sodipodi:nodetypes="cc" />
    <path
       style="fill:none;stroke:#000000;stroke-width:4;stroke-linecap:butt;stroke-linejoin:miter;stroke-miterlimit:4;stroke-opacity:1;stroke-dasharray:none;marker-end:url(#Arrow1Lend)"
       d="m 278.48077,574.64932 113.4382,-74.92986"
       id="path3964-8-1"
       inkscape:connector-curvature="0"
       sodipodi:nodetypes="cc" />
    <path
       style="fill:none;stroke:#000000;stroke-width:4;stroke-linecap:butt;stroke-linejoin:miter;stroke-miterlimit:4;stroke-opacity:1;stroke-dasharray:none;marker-end:url(#Arrow1Lend)"
       d="M 543.78341,572.62901 430.34519,497.69915"
       id="path3964-84"
       inkscape:connector-curvature="0"
       sodipodi:nodetypes="cc" />
  </g>
  <g
     inkscape:groupmode="layer"
     id="layer2"
     inkscape:label="programa"
     style="display:inline"
     sodipodi:insensitive="true">
    <g
       id="g3941-0"
       transform="translate(-104.31133,-372.34321)">
      <path
         inkscape:connector-curvature="0"
         d="m 220.13214,779.26214 341.57939,0 0,47.55163 0,0.9991 1.43522,0 51.84686,0 0,69.34481 -394.86147,0 0,-117.89554 z m -0.0339,-0.0232 0,0.96674 0,116.00833 0,0.96674 1.41488,0 392.09917,0 1.41488,0 0,-0.96674 0,-68.84974 -1.28224,-1.148 -0.13256,0 0,-0.0906 -53.45601,-46.8867 -338.64315,0 -1.41488,0 z"
         style="fill:none;stroke:#0013dc;stroke-width:2.39494205;stroke-miterlimit:4;stroke-opacity:1"
         id="rect2985-2-1" />
      <text
         sodipodi:linespacing="125%"
         id="text3883-0-4"
         y="868.23163"
         x="232.54707"
         style="font-size:64px;font-style:normal;font-weight:normal;line-height:125%;letter-spacing:0px;word-spacing:0px;fill:#000000;fill-opacity:1;stroke:none;font-family:Bitstream Vera Sans"
         xml:space="preserve"><tspan
           y="868.23163"
           x="232.54707"
           id="tspan3885-5-2"
           sodipodi:role="line">programa.c</tspan></text>
    </g>
  </g>
  <g
     inkscape:groupmode="layer"
     id="layer3"
     inkscape:label="pila.h"
     style="display:none"
     sodipodi:insensitive="true">
    <g
       style="display:inline"
       id="g3926-9"
       transform="translate(-97.880711,-375.78633)">
      <path
         inkscape:connector-curvature="0"
         d="m 98.90354,579.75701 237.84389,0 0,47.55163 0,0.9991 0.99935,0 36.1013,0 0,69.34481 -274.94454,0 0,-117.89554 z m -0.0236,-0.0232 0,0.96674 0,116.00833 0,0.96674 0.98519,0 273.02113,0 0.98519,0 0,-0.96674 0,-68.84974 -0.89283,-1.148 -0.0923,0 0,-0.0906 -37.22176,-46.8867 -235.79937,0 -0.98519,0 z"
         style="fill:none;stroke:#0013dc;stroke-width:1.99845874;stroke-miterlimit:4;stroke-opacity:1"
         id="rect2985-5-0" />
      <text
         sodipodi:linespacing="125%"
         id="text3883-3-0"
         y="656.36096"
         x="137.83276"
         style="font-size:64px;font-style:normal;font-weight:normal;line-height:125%;letter-spacing:0px;word-spacing:0px;fill:#000000;fill-opacity:1;stroke:none;font-family:Bitstream Vera Sans"
         xml:space="preserve"><tspan
           y="656.36096"
           x="137.83276"
           id="tspan3885-8-9"
           sodipodi:role="line">pila.h</tspan></text>
    </g>
    <path
       style="fill:none;stroke:#000000;stroke-width:4;stroke-linecap:butt;stroke-linejoin:miter;stroke-miterlimit:4;stroke-opacity:1;stroke-dasharray:none;marker-end:url(#Arrow1Lend);display:inline"
       d="M 294.03826,403.23718 180.60006,328.30732"
       id="path3964-7"
       inkscape:connector-curvature="0"
       sodipodi:nodetypes="cc" />
  </g>
  <g
     inkscape:groupmode="layer"
     id="layer4"
     inkscape:label="vector.h"
     style="display:none"
     sodipodi:insensitive="true">
    <g
       style="display:inline"
       id="g3936-2"
       transform="translate(-104.31133,-372.34321)">
      <path
         inkscape:connector-curvature="0"
         d="m 280.09055,373.36564 237.84389,0 0,47.55163 0,0.9991 0.99935,0 36.1013,0 0,69.34481 -274.94454,0 0,-117.89554 z m -0.0236,-0.0232 0,0.96674 0,116.00833 0,0.96674 0.98519,0 273.02113,0 0.98519,0 0,-0.96674 0,-68.84974 -0.89283,-1.148 -0.0923,0 0,-0.0906 -37.22176,-46.8867 -235.79937,0 -0.98519,0 z"
         style="fill:none;stroke:#0013dc;stroke-width:1.99845874;stroke-miterlimit:4;stroke-opacity:1"
         id="rect2985-7" />
      <text
         sodipodi:linespacing="125%"
         id="text3883-6"
         y="460.35187"
         x="290.23459"
         style="font-size:64px;font-style:normal;font-weight:normal;line-height:125%;letter-spacing:0px;word-spacing:0px;fill:#000000;fill-opacity:1;stroke:none;font-family:Bitstream Vera Sans"
         xml:space="preserve"><tspan
           y="460.35187"
           x="290.23459"
           id="tspan3885-9"
           sodipodi:role="line">vector.h</tspan></text>
    </g>
    <path
       style="fill:none;stroke:#000000;stroke-width:4;stroke-linecap:butt;stroke-linejoin:miter;stroke-miterlimit:4;stroke-opacity:1;stroke-dasharray:none;marker-end:url(#Arrow1Lend)"
       d="M 180.60005,202.30611 294.03826,127.37625"
       id="path3964-8-1-9"
       inkscape:connector-curvature="0"
       sodipodi:nodetypes="cc" />
  </g>
  <g
     inkscape:groupmode="layer"
     id="layer5"
     inkscape:label="cola.h"
     style="display:none"
     sodipodi:insensitive="true">
    <g
       style="display:inline"
       id="g3931-5"
       transform="translate(-97.88071,-375.78633)">
      <path
         inkscape:connector-curvature="0"
         d="m 448.41632,579.75701 237.84389,0 0,47.55163 0,0.9991 0.99935,0 36.1013,0 0,69.34481 -274.94454,0 0,-117.89554 z m -0.0236,-0.0232 0,0.96674 0,116.00833 0,0.96674 0.98519,0 273.02113,0 0.98519,0 0,-0.96674 0,-68.84974 -0.89283,-1.148 -0.0923,0 0,-0.0906 -37.22176,-46.8867 -235.79937,0 -0.98519,0 z"
         style="fill:none;stroke:#0013dc;stroke-width:1.99845874;stroke-miterlimit:4;stroke-opacity:1"
         id="rect2985-1-3" />
      <text
         sodipodi:linespacing="125%"
         id="text3883-1-9"
         y="662.56409"
         x="494.92584"
         style="font-size:64px;font-style:normal;font-weight:normal;line-height:125%;letter-spacing:0px;word-spacing:0px;fill:#000000;fill-opacity:1;stroke:none;font-family:Bitstream Vera Sans"
         xml:space="preserve"><tspan
           y="662.56409"
           x="494.92584"
           id="tspan3885-2-7"
           sodipodi:role="line">cola.h</tspan></text>
    </g>
    <path
       style="fill:none;stroke:#000000;stroke-width:4;stroke-linecap:butt;stroke-linejoin:miter;stroke-miterlimit:4;stroke-opacity:1;stroke-dasharray:none;marker-end:url(#Arrow1Lend);display:inline"
       d="M 332.46448,403.81925 445.9027,328.88939"
       id="path3964-8-3"
       inkscape:connector-curvature="0"
       sodipodi:nodetypes="cc" />
  </g>
  <g
     inkscape:groupmode="layer"
     id="layer6"
     inkscape:label="vector.h de nuevo"
     style="display:none"
     sodipodi:insensitive="true">
    <path
       style="fill:none;stroke:#000000;stroke-width:4;stroke-linecap:butt;stroke-linejoin:miter;stroke-miterlimit:4;stroke-opacity:1;stroke-dasharray:none;marker-end:url(#Arrow1Lend);display:inline"
       d="M 445.9027,200.2858 332.46448,125.35594"
       id="path3964-84-5"
       inkscape:connector-curvature="0"
       sodipodi:nodetypes="cc" />
  </g>
  <g
     inkscape:groupmode="layer"
     id="layer7"
     inkscape:label="evitar"
     style="display:none"
     sodipodi:insensitive="true">
    <text
       xml:space="preserve"
       style="font-size:72px;font-style:normal;font-weight:normal;line-height:125%;letter-spacing:0px;word-spacing:0px;fill:#ff0000;fill-opacity:1;stroke:none;font-family:Bitstream Vera Sans"
       x="347.49243"
       y="200.76591"
       id="text5273"
       sodipodi:linespacing="125%"><tspan
         sodipodi:role="line"
         id="tspan5275"
         x="347.49243"
         y="200.76591"
         style="font-size:144px">x</tspan></text>
  </g>
</svg>
